<!-- Generated by IcoMoon.io -->
<svg version="1.1" xmlns="http://www.w3.org/2000/svg" width="16" height="16" viewBox="0 0 16 16">
<title>quicktwig</title>
<path fill="#bebebe" d="M11.911 1.254c-0.839 0.22-1.836 1.511-2.406 3.119-0.501 1.411-0.876 3.6-0.983 5.728-0.019 0.377-0.044 0.687-0.058 0.7-0.004 0.004-0.075-0.128-0.157-0.294-0.422-0.852-1.027-1.295-1.82-1.333-0.227-0.011-0.321 0.010-0.16 0.036 0.298 0.048 0.718 0.289 0.993 0.57 0.685 0.701 1.018 1.908 0.958 3.481-0.015 0.404-0.033 0.447-0.089 0.216l-0.024-0.099-0.012 0.078c-0.018 0.118-0.017 0.793 0.001 0.842 0.014 0.037 0.031 0.044 0.133 0.054 0.138 0.014 0.15 0.007 0.13-0.085-0.020-0.087-0.028-0.083 0.115-0.053 0.332 0.069 0.512 0.069 0.908-0.001 0.078-0.014 0.209-0.025 0.29-0.025s0.173-0.005 0.204-0.011l0.057-0.011-0.011-0.141c-0.064-0.8-0.069-0.912-0.069-1.579-0.003-2.265 0.388-3.814 1.232-4.879 0.135-0.17 0.135-0.186 0.002-0.104-0.592 0.367-1.309 1.604-1.595 2.752-0.020 0.082-0.045 0.178-0.054 0.213-0.080 0.313-0.042-0.73 0.064-1.774 0.275-2.7 1.036-5.346 1.922-6.685 0.485-0.733 1.025-0.804 1.629-0.212 0.198 0.194 0.216 0.191 0.057-0.009-0.339-0.429-0.806-0.612-1.258-0.493zM5.026 8.593c0.026 0.12 0.080 2.481 0.080 3.469l-0 0.758-0.118-0.229c-0.156-0.301-0.251-0.434-0.46-0.639-0.205-0.202-0.245-0.218-0.109-0.044 0.272 0.348 0.472 0.992 0.556 1.795 0.026 0.25 0.056 0.866 0.040 0.851-0.005-0.005-0.042-0.099-0.082-0.209-0.077-0.212-0.116-0.281-0.098-0.174 0.006 0.034 0.022 0.183 0.036 0.331 0.037 0.381 0.068 0.427 0.229 0.34 0.059-0.032 0.071-0.032 0.324 0.002 0.091 0.012 0.394-0.035 0.44-0.069 0.026-0.019 0.026-0.031 0.002-0.148-0.056-0.268-0.023-0.886 0.063-1.167 0.095-0.311 0.3-0.517 0.552-0.555 0.064-0.010 0.074-0.015 0.047-0.026-0.154-0.060-0.611 0.072-0.744 0.214-0.062 0.067-0.057 0.089-0.109-0.448-0.075-0.772-0.2-1.71-0.333-2.51-0.116-0.696-0.281-1.543-0.306-1.569-0.011-0.011-0.014-0.003-0.008 0.026zM8.864 11.993c0.039 0.032 0.059 0.131 0.040 0.199-0.038 0.137-0.255 0.153-0.322 0.024-0.089-0.171 0.133-0.346 0.282-0.223zM9.353 12.016c0.149 0.149-0.018 0.376-0.204 0.279-0.118-0.061-0.123-0.235-0.009-0.305 0.083-0.051 0.145-0.043 0.213 0.026zM5.322 13.649c0.058 0.045 0.059 0.102 0.003 0.162-0.053 0.057-0.086 0.058-0.141 0.003-0.106-0.105 0.021-0.257 0.138-0.165zM5.641 13.651c0.053 0.050 0.051 0.108-0.006 0.153-0.058 0.045-0.101 0.046-0.146 0.001-0.107-0.107 0.041-0.258 0.151-0.154zM10.337 13.723c-0.191 0.332-0.329 0.596-0.315 0.604 0.009 0.006 0.047 0.007 0.084 0.004l0.068-0.007 0.108-0.332c0.115-0.355 0.121-0.383 0.056-0.269zM7.529 13.82c0 0.075 0.191 0.329 0.229 0.305 0.026-0.016-0.050-0.126-0.223-0.319-0.004-0.004-0.006 0.002-0.006 0.014zM10.67 14.019c-0.123 0.125-0.134 0.156-0.051 0.148 0.051-0.005 0.063-0.018 0.116-0.123 0.077-0.153 0.066-0.157-0.065-0.025zM6.201 14.537l-0.096 0.262 0.063-0.011c0.035-0.006 0.064-0.012 0.065-0.013 0.008-0.010 0.078-0.486 0.072-0.492-0.004-0.004-0.051 0.11-0.104 0.254zM6.513 14.544c-0.063 0.095-0.064 0.1-0.026 0.094 0.044-0.006 0.108-0.114 0.098-0.165-0.004-0.020-0.027 0.004-0.072 0.071zM4.521 14.575c0.059 0.099 0.093 0.136 0.124 0.136 0.039 0 0.034-0.011-0.055-0.114-0.098-0.113-0.129-0.123-0.068-0.022z"></path>
</svg>
